nav {
    float: left;
    width: 58%;
}
.sliderButton a {
width: 160px;
}
.Slider_header h1,Slider_header p {
    text-align: center;
}
<div class="nav_button" onclick="show();">
                <img src="img/Better_menu_logo.png" alt="" srcset="">
            </div>

height: 600px;

<script>
            var index = 0;
             
            function show(){
                if (index == 0){
                    document.getElementById('navbar').style.height = '390px';
                    index+=1;
                }else{
                    document.getElementById('navbar').style.height = '0px';
                    index-=1;
                    
                }
            }
        </script>